<?xml version="1.0" encoding="UTF-8"?>
<session version="1.0">
<refactoring comment="Delete resource &apos;src&apos;" deleteContents="true" description="Delete resource &apos;src&apos;" element1="/src" flags="7" id="org.eclipse.ltk.core.refactoring.delete.resources" resources="1" stamp="1391198944129"/>
</session>